Composition,Temperature,"Time (h)","Radius (A)",fv,UncertaintyRad,"Number (m^-3)"
A2,380,0.001,16.53,0.23,15,
A2,380,0.25,47.26,1.21,15,
A2,380,1,63.34,2.39,15,
A2,380,4,73.32,3.54,15,3.6e21
A2,380,240,72,3.54,15,5.8e21
C4,380,0.001,40,0.68,15,
C4,380,0.0833,53,1.69,15,
C4,380,0.25,59,2.47,15,
C4,380,1,65,3.64,15,
C4,380,4,70,4.3,15,
C4,380,24,72,4.8,15,
C4,380,72,72,5.02,15,
C4,380,240,95,8.9,15,
C5,380,0.001,14,0.2,15,
C5,380,1,164,19,15,
C5,380,240,200,37,15,
A2stp,,0.0015,17.3,15,
A2stp,,30,41,15,